{
  "users": [
    {
      "id": 1,
      "name": "Alex Polyanov",
      "email": "alexander@gmail.com",
      "password": "123",
      "role": "USER"
    },
    {
      "name": "Polina Panova",
      "email": "polina@abv.bg",
      "password": "1234",
      "role": "USER",
      "id": 3
    },
    {
      "name": "asd",
      "email": "asd@abv.bg",
      "password": "asd",
      "role": "USER",
      "id": 4
    },
    {
      "name": "Tanko Tanev",
      "email": "tanko@abv.bg",
      "password": "1234",
      "role": "ADMINISTRATOR",
      "id": 5
    }
  ],
  "bookings": [
    {
      "endDate": "15/06/2023",
      "startDate": "12/06/2023",
      "days": 123,
      "roomType": "Апартамент",
      "approved": true,
      "userName": "Alexander",
      "id": 2,
      "approve": true
    },
    {
      "endDate": "15/06/2023",
      "startDate": "12/06/2023",
      "days": 1234,
      "roomType": "Единична",
      "approved": true,
      "userName": "Alexander",
      "id": 3
    },
    {
      "endDate": "15/06/2023",
      "startDate": "12/06/2023",
      "days": 1234,
      "roomType": "Единична",
      "approved": false,
      "userName": "Alexander",
      "id": 4
    },
    {
      "endDate": "15/06/2023",
      "startDate": "12/06/2023",
      "days": 1234,
      "roomType": "Единична",
      "approved": false,
      "userName": "Alexander",
      "id": 5
    },
    {
      "endDate": "18/06/2025",
      "startDate": "12/06/2022",
      "days": 22,
      "roomType": "Двойна",
      "approved": false,
      "userName": "Alexander",
      "id": 6
    },
    {
      "endDate": "18/06/2025",
      "startDate": "12/03/2023",
      "days": 13,
      "roomType": "ВИП Апартамент",
      "approved": true,
      "userName": "Polina Panova",
      "id": 7
    },
    {
      "endDate": "18/06/2025",
      "startDate": "12/03/2023",
      "days": 13,
      "roomType": "ВИП Апартамент",
      "approved": true,
      "userName": "Polina Panova",
      "id": 8
    },
    {
      "endDate": "18/06/2025",
      "startDate": "12/03/2023",
      "days": 13,
      "roomType": "ВИП Апартамент",
      "approved": true,
      "userName": "Polina Panova",
      "id": 9
    },
    {
      "endDate": "18/06/2025",
      "startDate": "12/03/2023",
      "days": 13,
      "roomType": "ВИП Апартамент",
      "approved": false,
      "userName": "Polina Panova",
      "id": 10
    },
    {
      "endDate": "18/06/2025",
      "startDate": "12/03/2023",
      "days": 13,
      "roomType": "ВИП Апартамент",
      "approved": false,
      "userName": "Polina Panova",
      "id": 11
    },
    {
      "endDate": "12/03/2014",
      "startDate": "12/02/2014",
      "days": 12,
      "roomType": "Единична",
      "approved": false,
      "userName": "Tanko Tanev",
      "id": 12
    },
    {
      "endDate": "",
      "startDate": "",
      "days": "",
      "roomType": "Единична",
      "approved": false,
      "userName": "Tanko Tanev",
      "id": 13
    },
    {
      "endDate": "",
      "startDate": "",
      "days": "",
      "roomType": "Единична",
      "approved": false,
      "userName": "Tanko Tanev",
      "id": 14
    }
  ]
}